^C:\USERS\CHEERSLUV\SOURCE\REPOS\CARIENGINE\CARIENGINECORE\SRC\GRAPHICS\BATCHRENDERER2D.CPP
/c /IC:\USERS\CHEERSLUV\SOURCE\REPOS\CARIENGINE\/INCLUDE /Zi /nologo /W3 /WX- /diagnostics:column /sdl /O2 /Ob2 /Oi /Ot /Oy- /GL /D GLEW_STATIC /D _CRT_SECURE_NO_WARNINGS /D _MBCS /Gm- /EHsc /MD /GS /Gy /arch:SSE2 /fp:fast /permissive- /Zc:wchar_t /Zc:forScope /Zc:inline /Fo"C:\USERS\CHEERSLUV\SOURCE\REPOS\CARIENGINE\BIN\RELEASE\INTERMEDIATES\\" /Fd"C:\USERS\CHEERSLUV\SOURCE\REPOS\CARIENGINE\BIN\RELEASE\INTERMEDIATES\VC142.PDB" /Gd /TP /analyze- /FC C:\USERS\CHEERSLUV\SOURCE\REPOS\CARIENGINE\CARIENGINECORE\SRC\GRAPHICS\BATCHRENDERER2D.CPP
^C:\USERS\CHEERSLUV\SOURCE\REPOS\CARIENGINE\CARIENGINECORE\SRC\GRAPHICS\BUFFERS\INDEXBUFFER.CPP
/c /IC:\USERS\CHEERSLUV\SOURCE\REPOS\CARIENGINE\/INCLUDE /Zi /nologo /W3 /WX- /diagnostics:column /sdl /O2 /Ob2 /Oi /Ot /Oy- /GL /D GLEW_STATIC /D _CRT_SECURE_NO_WARNINGS /D _MBCS /Gm- /EHsc /MD /GS /Gy /arch:SSE2 /fp:fast /permissive- /Zc:wchar_t /Zc:forScope /Zc:inline /Fo"C:\USERS\CHEERSLUV\SOURCE\REPOS\CARIENGINE\BIN\RELEASE\INTERMEDIATES\\" /Fd"C:\USERS\CHEERSLUV\SOURCE\REPOS\CARIENGINE\BIN\RELEASE\INTERMEDIATES\VC142.PDB" /Gd /TP /analyze- /FC C:\USERS\CHEERSLUV\SOURCE\REPOS\CARIENGINE\CARIENGINECORE\SRC\GRAPHICS\BUFFERS\INDEXBUFFER.CPP
^C:\USERS\CHEERSLUV\SOURCE\REPOS\CARIENGINE\CARIENGINECORE\SRC\GRAPHICS\GLSL.CPP
/c /IC:\USERS\CHEERSLUV\SOURCE\REPOS\CARIENGINE\/INCLUDE /Zi /nologo /W3 /WX- /diagnostics:column /sdl /O2 /Ob2 /Oi /Ot /Oy- /GL /D GLEW_STATIC /D _CRT_SECURE_NO_WARNINGS /D _MBCS /Gm- /EHsc /MD /GS /Gy /arch:SSE2 /fp:fast /permissive- /Zc:wchar_t /Zc:forScope /Zc:inline /Fo"C:\USERS\CHEERSLUV\SOURCE\REPOS\CARIENGINE\BIN\RELEASE\INTERMEDIATES\\" /Fd"C:\USERS\CHEERSLUV\SOURCE\REPOS\CARIENGINE\BIN\RELEASE\INTERMEDIATES\VC142.PDB" /Gd /TP /analyze- /FC C:\USERS\CHEERSLUV\SOURCE\REPOS\CARIENGINE\CARIENGINECORE\SRC\GRAPHICS\GLSL.CPP
^C:\USERS\CHEERSLUV\SOURCE\REPOS\CARIENGINE\CARIENGINECORE\SRC\GRAPHICS\MESH.CPP
/c /IC:\USERS\CHEERSLUV\SOURCE\REPOS\CARIENGINE\/INCLUDE /Zi /nologo /W3 /WX- /diagnostics:column /sdl /O2 /Ob2 /Oi /Ot /Oy- /GL /D GLEW_STATIC /D _CRT_SECURE_NO_WARNINGS /D _MBCS /Gm- /EHsc /MD /GS /Gy /arch:SSE2 /fp:fast /permissive- /Zc:wchar_t /Zc:forScope /Zc:inline /Fo"C:\USERS\CHEERSLUV\SOURCE\REPOS\CARIENGINE\BIN\RELEASE\INTERMEDIATES\\" /Fd"C:\USERS\CHEERSLUV\SOURCE\REPOS\CARIENGINE\BIN\RELEASE\INTERMEDIATES\VC142.PDB" /Gd /TP /analyze- /FC C:\USERS\CHEERSLUV\SOURCE\REPOS\CARIENGINE\CARIENGINECORE\SRC\GRAPHICS\MESH.CPP
^C:\USERS\CHEERSLUV\SOURCE\REPOS\CARIENGINE\CARIENGINECORE\SRC\GRAPHICS\MESHOLD.CPP
/c /IC:\USERS\CHEERSLUV\SOURCE\REPOS\CARIENGINE\/INCLUDE /Zi /nologo /W3 /WX- /diagnostics:column /sdl /O2 /Ob2 /Oi /Ot /Oy- /GL /D GLEW_STATIC /D _CRT_SECURE_NO_WARNINGS /D _MBCS /Gm- /EHsc /MD /GS /Gy /arch:SSE2 /fp:fast /permissive- /Zc:wchar_t /Zc:forScope /Zc:inline /Fo"C:\USERS\CHEERSLUV\SOURCE\REPOS\CARIENGINE\BIN\RELEASE\INTERMEDIATES\\" /Fd"C:\USERS\CHEERSLUV\SOURCE\REPOS\CARIENGINE\BIN\RELEASE\INTERMEDIATES\VC142.PDB" /Gd /TP /analyze- /FC C:\USERS\CHEERSLUV\SOURCE\REPOS\CARIENGINE\CARIENGINECORE\SRC\GRAPHICS\MESHOLD.CPP
^C:\USERS\CHEERSLUV\SOURCE\REPOS\CARIENGINE\CARIENGINECORE\SRC\GRAPHICS\MODEL.CPP
/c /IC:\USERS\CHEERSLUV\SOURCE\REPOS\CARIENGINE\/INCLUDE /Zi /nologo /W3 /WX- /diagnostics:column /sdl /O2 /Ob2 /Oi /Ot /Oy- /GL /D GLEW_STATIC /D _CRT_SECURE_NO_WARNINGS /D _MBCS /Gm- /EHsc /MD /GS /Gy /arch:SSE2 /fp:fast /permissive- /Zc:wchar_t /Zc:forScope /Zc:inline /Fo"C:\USERS\CHEERSLUV\SOURCE\REPOS\CARIENGINE\BIN\RELEASE\INTERMEDIATES\\" /Fd"C:\USERS\CHEERSLUV\SOURCE\REPOS\CARIENGINE\BIN\RELEASE\INTERMEDIATES\VC142.PDB" /Gd /TP /analyze- /FC C:\USERS\CHEERSLUV\SOURCE\REPOS\CARIENGINE\CARIENGINECORE\SRC\GRAPHICS\MODEL.CPP
^C:\USERS\CHEERSLUV\SOURCE\REPOS\CARIENGINE\CARIENGINECORE\SRC\GRAPHICS\SIMPLERENDERER2D.CPP
/c /IC:\USERS\CHEERSLUV\SOURCE\REPOS\CARIENGINE\/INCLUDE /Zi /nologo /W3 /WX- /diagnostics:column /sdl /O2 /Ob2 /Oi /Ot /Oy- /GL /D GLEW_STATIC /D _CRT_SECURE_NO_WARNINGS /D _MBCS /Gm- /EHsc /MD /GS /Gy /arch:SSE2 /fp:fast /permissive- /Zc:wchar_t /Zc:forScope /Zc:inline /Fo"C:\USERS\CHEERSLUV\SOURCE\REPOS\CARIENGINE\BIN\RELEASE\INTERMEDIATES\\" /Fd"C:\USERS\CHEERSLUV\SOURCE\REPOS\CARIENGINE\BIN\RELEASE\INTERMEDIATES\VC142.PDB" /Gd /TP /analyze- /FC C:\USERS\CHEERSLUV\SOURCE\REPOS\CARIENGINE\CARIENGINECORE\SRC\GRAPHICS\SIMPLERENDERER2D.CPP
^C:\USERS\CHEERSLUV\SOURCE\REPOS\CARIENGINE\CARIENGINECORE\SRC\GRAPHICS\TEXTURE.CPP
/c /IC:\USERS\CHEERSLUV\SOURCE\REPOS\CARIENGINE\/INCLUDE /Zi /nologo /W3 /WX- /diagnostics:column /sdl /O2 /Ob2 /Oi /Ot /Oy- /GL /D GLEW_STATIC /D _CRT_SECURE_NO_WARNINGS /D _MBCS /Gm- /EHsc /MD /GS /Gy /arch:SSE2 /fp:fast /permissive- /Zc:wchar_t /Zc:forScope /Zc:inline /Fo"C:\USERS\CHEERSLUV\SOURCE\REPOS\CARIENGINE\BIN\RELEASE\INTERMEDIATES\\" /Fd"C:\USERS\CHEERSLUV\SOURCE\REPOS\CARIENGINE\BIN\RELEASE\INTERMEDIATES\VC142.PDB" /Gd /TP /analyze- /FC C:\USERS\CHEERSLUV\SOURCE\REPOS\CARIENGINE\CARIENGINECORE\SRC\GRAPHICS\TEXTURE.CPP
^C:\USERS\CHEERSLUV\SOURCE\REPOS\CARIENGINE\CARIENGINECORE\SRC\GRAPHICS\TEXTUREMANAGER.CPP
/c /IC:\USERS\CHEERSLUV\SOURCE\REPOS\CARIENGINE\/INCLUDE /Zi /nologo /W3 /WX- /diagnostics:column /sdl /O2 /Ob2 /Oi /Ot /Oy- /GL /D GLEW_STATIC /D _CRT_SECURE_NO_WARNINGS /D _MBCS /Gm- /EHsc /MD /GS /Gy /arch:SSE2 /fp:fast /permissive- /Zc:wchar_t /Zc:forScope /Zc:inline /Fo"C:\USERS\CHEERSLUV\SOURCE\REPOS\CARIENGINE\BIN\RELEASE\INTERMEDIATES\\" /Fd"C:\USERS\CHEERSLUV\SOURCE\REPOS\CARIENGINE\BIN\RELEASE\INTERMEDIATES\VC142.PDB" /Gd /TP /analyze- /FC C:\USERS\CHEERSLUV\SOURCE\REPOS\CARIENGINE\CARIENGINECORE\SRC\GRAPHICS\TEXTUREMANAGER.CPP
^C:\USERS\CHEERSLUV\SOURCE\REPOS\CARIENGINE\CARIENGINECORE\SRC\GRAPHICS\WINDOW.CPP
/c /IC:\USERS\CHEERSLUV\SOURCE\REPOS\CARIENGINE\/INCLUDE /Zi /nologo /W3 /WX- /diagnostics:column /sdl /O2 /Ob2 /Oi /Ot /Oy- /GL /D GLEW_STATIC /D _CRT_SECURE_NO_WARNINGS /D _MBCS /Gm- /EHsc /MD /GS /Gy /arch:SSE2 /fp:fast /permissive- /Zc:wchar_t /Zc:forScope /Zc:inline /Fo"C:\USERS\CHEERSLUV\SOURCE\REPOS\CARIENGINE\BIN\RELEASE\INTERMEDIATES\\" /Fd"C:\USERS\CHEERSLUV\SOURCE\REPOS\CARIENGINE\BIN\RELEASE\INTERMEDIATES\VC142.PDB" /Gd /TP /analyze- /FC C:\USERS\CHEERSLUV\SOURCE\REPOS\CARIENGINE\CARIENGINECORE\SRC\GRAPHICS\WINDOW.CPP
^C:\USERS\CHEERSLUV\SOURCE\REPOS\CARIENGINE\CARIENGINECORE\SRC\PHYSICS\AABOUNDINGBOX.CPP
/c /IC:\USERS\CHEERSLUV\SOURCE\REPOS\CARIENGINE\/INCLUDE /Zi /nologo /W3 /WX- /diagnostics:column /sdl /O2 /Ob2 /Oi /Ot /Oy- /GL /D GLEW_STATIC /D _CRT_SECURE_NO_WARNINGS /D _MBCS /Gm- /EHsc /MD /GS /Gy /arch:SSE2 /fp:fast /permissive- /Zc:wchar_t /Zc:forScope /Zc:inline /Fo"C:\USERS\CHEERSLUV\SOURCE\REPOS\CARIENGINE\BIN\RELEASE\INTERMEDIATES\\" /Fd"C:\USERS\CHEERSLUV\SOURCE\REPOS\CARIENGINE\BIN\RELEASE\INTERMEDIATES\VC142.PDB" /Gd /TP /analyze- /FC C:\USERS\CHEERSLUV\SOURCE\REPOS\CARIENGINE\CARIENGINECORE\SRC\PHYSICS\AABOUNDINGBOX.CPP
^C:\USERS\CHEERSLUV\SOURCE\REPOS\CARIENGINE\CARIENGINECORE\SRC\PHYSICS\BOUNDINGSPHERE.CPP
/c /IC:\USERS\CHEERSLUV\SOURCE\REPOS\CARIENGINE\/INCLUDE /Zi /nologo /W3 /WX- /diagnostics:column /sdl /O2 /Ob2 /Oi /Ot /Oy- /GL /D GLEW_STATIC /D _CRT_SECURE_NO_WARNINGS /D _MBCS /Gm- /EHsc /MD /GS /Gy /arch:SSE2 /fp:fast /permissive- /Zc:wchar_t /Zc:forScope /Zc:inline /Fo"C:\USERS\CHEERSLUV\SOURCE\REPOS\CARIENGINE\BIN\RELEASE\INTERMEDIATES\\" /Fd"C:\USERS\CHEERSLUV\SOURCE\REPOS\CARIENGINE\BIN\RELEASE\INTERMEDIATES\VC142.PDB" /Gd /TP /analyze- /FC C:\USERS\CHEERSLUV\SOURCE\REPOS\CARIENGINE\CARIENGINECORE\SRC\PHYSICS\BOUNDINGSPHERE.CPP
^C:\USERS\CHEERSLUV\SOURCE\REPOS\CARIENGINE\CARIENGINECORE\SRC\PHYSICS\PHYSICSOBJECT.CPP
/c /IC:\USERS\CHEERSLUV\SOURCE\REPOS\CARIENGINE\/INCLUDE /Zi /nologo /W3 /WX- /diagnostics:column /sdl /O2 /Ob2 /Oi /Ot /Oy- /GL /D GLEW_STATIC /D _CRT_SECURE_NO_WARNINGS /D _MBCS /Gm- /EHsc /MD /GS /Gy /arch:SSE2 /fp:fast /permissive- /Zc:wchar_t /Zc:forScope /Zc:inline /Fo"C:\USERS\CHEERSLUV\SOURCE\REPOS\CARIENGINE\BIN\RELEASE\INTERMEDIATES\\" /Fd"C:\USERS\CHEERSLUV\SOURCE\REPOS\CARIENGINE\BIN\RELEASE\INTERMEDIATES\VC142.PDB" /Gd /TP /analyze- /FC C:\USERS\CHEERSLUV\SOURCE\REPOS\CARIENGINE\CARIENGINECORE\SRC\PHYSICS\PHYSICSOBJECT.CPP
^C:\USERS\CHEERSLUV\SOURCE\REPOS\CARIENGINE\CARIENGINECORE\SRC\PHYSICS\PLANE.CPP
/c /IC:\USERS\CHEERSLUV\SOURCE\REPOS\CARIENGINE\/INCLUDE /Zi /nologo /W3 /WX- /diagnostics:column /sdl /O2 /Ob2 /Oi /Ot /Oy- /GL /D GLEW_STATIC /D _CRT_SECURE_NO_WARNINGS /D _MBCS /Gm- /EHsc /MD /GS /Gy /arch:SSE2 /fp:fast /permissive- /Zc:wchar_t /Zc:forScope /Zc:inline /Fo"C:\USERS\CHEERSLUV\SOURCE\REPOS\CARIENGINE\BIN\RELEASE\INTERMEDIATES\\" /Fd"C:\USERS\CHEERSLUV\SOURCE\REPOS\CARIENGINE\BIN\RELEASE\INTERMEDIATES\VC142.PDB" /Gd /TP /analyze- /FC C:\USERS\CHEERSLUV\SOURCE\REPOS\CARIENGINE\CARIENGINECORE\SRC\PHYSICS\PLANE.CPP
^C:\USERS\CHEERSLUV\SOURCE\REPOS\CARIENGINE\CARIENGINECORE\MAIN.CPP
/c /IC:\USERS\CHEERSLUV\SOURCE\REPOS\CARIENGINE\/INCLUDE /Zi /nologo /W3 /WX- /diagnostics:column /sdl /O2 /Ob2 /Oi /Ot /Oy- /GL /D GLEW_STATIC /D _CRT_SECURE_NO_WARNINGS /D _MBCS /Gm- /EHsc /MD /GS /Gy /arch:SSE2 /fp:fast /permissive- /Zc:wchar_t /Zc:forScope /Zc:inline /Fo"C:\USERS\CHEERSLUV\SOURCE\REPOS\CARIENGINE\BIN\RELEASE\INTERMEDIATES\\" /Fd"C:\USERS\CHEERSLUV\SOURCE\REPOS\CARIENGINE\BIN\RELEASE\INTERMEDIATES\VC142.PDB" /Gd /TP /analyze- /FC C:\USERS\CHEERSLUV\SOURCE\REPOS\CARIENGINE\CARIENGINECORE\MAIN.CPP
^C:\USERS\CHEERSLUV\SOURCE\REPOS\CARIENGINE\CARIENGINECORE\SRC\CORE\APPLICATION.CPP
/c /IC:\USERS\CHEERSLUV\SOURCE\REPOS\CARIENGINE\/INCLUDE /Zi /nologo /W3 /WX- /diagnostics:column /sdl /O2 /Ob2 /Oi /Ot /Oy- /GL /D GLEW_STATIC /D _CRT_SECURE_NO_WARNINGS /D _MBCS /Gm- /EHsc /MD /GS /Gy /arch:SSE2 /fp:fast /permissive- /Zc:wchar_t /Zc:forScope /Zc:inline /Fo"C:\USERS\CHEERSLUV\SOURCE\REPOS\CARIENGINE\BIN\RELEASE\INTERMEDIATES\\" /Fd"C:\USERS\CHEERSLUV\SOURCE\REPOS\CARIENGINE\BIN\RELEASE\INTERMEDIATES\VC142.PDB" /Gd /TP /analyze- /FC C:\USERS\CHEERSLUV\SOURCE\REPOS\CARIENGINE\CARIENGINECORE\SRC\CORE\APPLICATION.CPP
^C:\USERS\CHEERSLUV\SOURCE\REPOS\CARIENGINE\CARIENGINECORE\SRC\CORE\WINDOW.CPP
/c /IC:\USERS\CHEERSLUV\SOURCE\REPOS\CARIENGINE\/INCLUDE /Zi /nologo /W3 /WX- /diagnostics:column /sdl /O2 /Ob2 /Oi /Ot /Oy- /GL /D GLEW_STATIC /D _CRT_SECURE_NO_WARNINGS /D _MBCS /Gm- /EHsc /MD /GS /Gy /arch:SSE2 /fp:fast /permissive- /Zc:wchar_t /Zc:forScope /Zc:inline /Fo"C:\USERS\CHEERSLUV\SOURCE\REPOS\CARIENGINE\BIN\RELEASE\INTERMEDIATES\\" /Fd"C:\USERS\CHEERSLUV\SOURCE\REPOS\CARIENGINE\BIN\RELEASE\INTERMEDIATES\VC142.PDB" /Gd /TP /analyze- /FC C:\USERS\CHEERSLUV\SOURCE\REPOS\CARIENGINE\CARIENGINECORE\SRC\CORE\WINDOW.CPP
^C:\USERS\CHEERSLUV\SOURCE\REPOS\CARIENGINE\CARIENGINECORE\SRC\GRAPHICS\BUFFERS\BUFFER.CPP
/c /IC:\USERS\CHEERSLUV\SOURCE\REPOS\CARIENGINE\/INCLUDE /Zi /nologo /W3 /WX- /diagnostics:column /sdl /O2 /Ob2 /Oi /Ot /Oy- /GL /D GLEW_STATIC /D _CRT_SECURE_NO_WARNINGS /D _MBCS /Gm- /EHsc /MD /GS /Gy /arch:SSE2 /fp:fast /permissive- /Zc:wchar_t /Zc:forScope /Zc:inline /Fo"C:\USERS\CHEERSLUV\SOURCE\REPOS\CARIENGINE\BIN\RELEASE\INTERMEDIATES\\" /Fd"C:\USERS\CHEERSLUV\SOURCE\REPOS\CARIENGINE\BIN\RELEASE\INTERMEDIATES\VC142.PDB" /Gd /TP /analyze- /FC C:\USERS\CHEERSLUV\SOURCE\REPOS\CARIENGINE\CARIENGINECORE\SRC\GRAPHICS\BUFFERS\BUFFER.CPP
^C:\USERS\CHEERSLUV\SOURCE\REPOS\CARIENGINE\CARIENGINECORE\SRC\GRAPHICS\BUFFERS\VERTEXARRAY.CPP
/c /IC:\USERS\CHEERSLUV\SOURCE\REPOS\CARIENGINE\/INCLUDE /Zi /nologo /W3 /WX- /diagnostics:column /sdl /O2 /Ob2 /Oi /Ot /Oy- /GL /D GLEW_STATIC /D _CRT_SECURE_NO_WARNINGS /D _MBCS /Gm- /EHsc /MD /GS /Gy /arch:SSE2 /fp:fast /permissive- /Zc:wchar_t /Zc:forScope /Zc:inline /Fo"C:\USERS\CHEERSLUV\SOURCE\REPOS\CARIENGINE\BIN\RELEASE\INTERMEDIATES\\" /Fd"C:\USERS\CHEERSLUV\SOURCE\REPOS\CARIENGINE\BIN\RELEASE\INTERMEDIATES\VC142.PDB" /Gd /TP /analyze- /FC C:\USERS\CHEERSLUV\SOURCE\REPOS\CARIENGINE\CARIENGINECORE\SRC\GRAPHICS\BUFFERS\VERTEXARRAY.CPP
^C:\USERS\CHEERSLUV\SOURCE\REPOS\CARIENGINE\CARIENGINECORE\SRC\GRAPHICS\FONTS\FONT.CPP
/c /IC:\USERS\CHEERSLUV\SOURCE\REPOS\CARIENGINE\/INCLUDE /Zi /nologo /W3 /WX- /diagnostics:column /sdl /O2 /Ob2 /Oi /Ot /Oy- /GL /D GLEW_STATIC /D _CRT_SECURE_NO_WARNINGS /D _MBCS /Gm- /EHsc /MD /GS /Gy /arch:SSE2 /fp:fast /permissive- /Zc:wchar_t /Zc:forScope /Zc:inline /Fo"C:\USERS\CHEERSLUV\SOURCE\REPOS\CARIENGINE\BIN\RELEASE\INTERMEDIATES\\" /Fd"C:\USERS\CHEERSLUV\SOURCE\REPOS\CARIENGINE\BIN\RELEASE\INTERMEDIATES\VC142.PDB" /Gd /TP /analyze- /FC C:\USERS\CHEERSLUV\SOURCE\REPOS\CARIENGINE\CARIENGINECORE\SRC\GRAPHICS\FONTS\FONT.CPP
^C:\USERS\CHEERSLUV\SOURCE\REPOS\CARIENGINE\CARIENGINECORE\SRC\GRAPHICS\FONTS\FONTMANAGER.CPP
/c /IC:\USERS\CHEERSLUV\SOURCE\REPOS\CARIENGINE\/INCLUDE /Zi /nologo /W3 /WX- /diagnostics:column /sdl /O2 /Ob2 /Oi /Ot /Oy- /GL /D GLEW_STATIC /D _CRT_SECURE_NO_WARNINGS /D _MBCS /Gm- /EHsc /MD /GS /Gy /arch:SSE2 /fp:fast /permissive- /Zc:wchar_t /Zc:forScope /Zc:inline /Fo"C:\USERS\CHEERSLUV\SOURCE\REPOS\CARIENGINE\BIN\RELEASE\INTERMEDIATES\\" /Fd"C:\USERS\CHEERSLUV\SOURCE\REPOS\CARIENGINE\BIN\RELEASE\INTERMEDIATES\VC142.PDB" /Gd /TP /analyze- /FC C:\USERS\CHEERSLUV\SOURCE\REPOS\CARIENGINE\CARIENGINECORE\SRC\GRAPHICS\FONTS\FONTMANAGER.CPP
^C:\USERS\CHEERSLUV\SOURCE\REPOS\CARIENGINE\CARIENGINECORE\SRC\GRAPHICS\OBJECTS\MESH.CPP
/c /IC:\USERS\CHEERSLUV\SOURCE\REPOS\CARIENGINE\/INCLUDE /Zi /nologo /W3 /WX- /diagnostics:column /sdl /O2 /Ob2 /Oi /Ot /Oy- /GL /D GLEW_STATIC /D _CRT_SECURE_NO_WARNINGS /D _MBCS /Gm- /EHsc /MD /GS /Gy /arch:SSE2 /fp:fast /permissive- /Zc:wchar_t /Zc:forScope /Zc:inline /Fo"C:\USERS\CHEERSLUV\SOURCE\REPOS\CARIENGINE\BIN\RELEASE\INTERMEDIATES\\" /Fd"C:\USERS\CHEERSLUV\SOURCE\REPOS\CARIENGINE\BIN\RELEASE\INTERMEDIATES\VC142.PDB" /Gd /TP /analyze- /FC C:\USERS\CHEERSLUV\SOURCE\REPOS\CARIENGINE\CARIENGINECORE\SRC\GRAPHICS\OBJECTS\MESH.CPP
^C:\USERS\CHEERSLUV\SOURCE\REPOS\CARIENGINE\CARIENGINECORE\SRC\GRAPHICS\OBJECTS\MESHOLD.CPP
/c /IC:\USERS\CHEERSLUV\SOURCE\REPOS\CARIENGINE\/INCLUDE /Zi /nologo /W3 /WX- /diagnostics:column /sdl /O2 /Ob2 /Oi /Ot /Oy- /GL /D GLEW_STATIC /D _CRT_SECURE_NO_WARNINGS /D _MBCS /Gm- /EHsc /MD /GS /Gy /arch:SSE2 /fp:fast /permissive- /Zc:wchar_t /Zc:forScope /Zc:inline /Fo"C:\USERS\CHEERSLUV\SOURCE\REPOS\CARIENGINE\BIN\RELEASE\INTERMEDIATES\\" /Fd"C:\USERS\CHEERSLUV\SOURCE\REPOS\CARIENGINE\BIN\RELEASE\INTERMEDIATES\VC142.PDB" /Gd /TP /analyze- /FC C:\USERS\CHEERSLUV\SOURCE\REPOS\CARIENGINE\CARIENGINECORE\SRC\GRAPHICS\OBJECTS\MESHOLD.CPP
^C:\USERS\CHEERSLUV\SOURCE\REPOS\CARIENGINE\CARIENGINECORE\SRC\GRAPHICS\OBJECTS\MESHTOOLS.CPP
/c /IC:\USERS\CHEERSLUV\SOURCE\REPOS\CARIENGINE\/INCLUDE /Zi /nologo /W3 /WX- /diagnostics:column /sdl /O2 /Ob2 /Oi /Ot /Oy- /GL /D GLEW_STATIC /D _CRT_SECURE_NO_WARNINGS /D _MBCS /Gm- /EHsc /MD /GS /Gy /arch:SSE2 /fp:fast /permissive- /Zc:wchar_t /Zc:forScope /Zc:inline /Fo"C:\USERS\CHEERSLUV\SOURCE\REPOS\CARIENGINE\BIN\RELEASE\INTERMEDIATES\\" /Fd"C:\USERS\CHEERSLUV\SOURCE\REPOS\CARIENGINE\BIN\RELEASE\INTERMEDIATES\VC142.PDB" /Gd /TP /analyze- /FC C:\USERS\CHEERSLUV\SOURCE\REPOS\CARIENGINE\CARIENGINECORE\SRC\GRAPHICS\OBJECTS\MESHTOOLS.CPP
^C:\USERS\CHEERSLUV\SOURCE\REPOS\CARIENGINE\CARIENGINECORE\SRC\GRAPHICS\OBJECTS\MODEL.CPP
/c /IC:\USERS\CHEERSLUV\SOURCE\REPOS\CARIENGINE\/INCLUDE /Zi /nologo /W3 /WX- /diagnostics:column /sdl /O2 /Ob2 /Oi /Ot /Oy- /GL /D GLEW_STATIC /D _CRT_SECURE_NO_WARNINGS /D _MBCS /Gm- /EHsc /MD /GS /Gy /arch:SSE2 /fp:fast /permissive- /Zc:wchar_t /Zc:forScope /Zc:inline /Fo"C:\USERS\CHEERSLUV\SOURCE\REPOS\CARIENGINE\BIN\RELEASE\INTERMEDIATES\\" /Fd"C:\USERS\CHEERSLUV\SOURCE\REPOS\CARIENGINE\BIN\RELEASE\INTERMEDIATES\VC142.PDB" /Gd /TP /analyze- /FC C:\USERS\CHEERSLUV\SOURCE\REPOS\CARIENGINE\CARIENGINECORE\SRC\GRAPHICS\OBJECTS\MODEL.CPP
^C:\USERS\CHEERSLUV\SOURCE\REPOS\CARIENGINE\CARIENGINECORE\SRC\GRAPHICS\OBJECTS\MODELMANAGER.CPP
/c /IC:\USERS\CHEERSLUV\SOURCE\REPOS\CARIENGINE\/INCLUDE /Zi /nologo /W3 /WX- /diagnostics:column /sdl /O2 /Ob2 /Oi /Ot /Oy- /GL /D GLEW_STATIC /D _CRT_SECURE_NO_WARNINGS /D _MBCS /Gm- /EHsc /MD /GS /Gy /arch:SSE2 /fp:fast /permissive- /Zc:wchar_t /Zc:forScope /Zc:inline /Fo"C:\USERS\CHEERSLUV\SOURCE\REPOS\CARIENGINE\BIN\RELEASE\INTERMEDIATES\\" /Fd"C:\USERS\CHEERSLUV\SOURCE\REPOS\CARIENGINE\BIN\RELEASE\INTERMEDIATES\VC142.PDB" /Gd /TP /analyze- /FC C:\USERS\CHEERSLUV\SOURCE\REPOS\CARIENGINE\CARIENGINECORE\SRC\GRAPHICS\OBJECTS\MODELMANAGER.CPP
^C:\USERS\CHEERSLUV\SOURCE\REPOS\CARIENGINE\CARIENGINECORE\SRC\GRAPHICS\RENDERERS\BATCHRENDERER2D.CPP
/c /IC:\USERS\CHEERSLUV\SOURCE\REPOS\CARIENGINE\/INCLUDE /Zi /nologo /W3 /WX- /diagnostics:column /sdl /O2 /Ob2 /Oi /Ot /Oy- /GL /D GLEW_STATIC /D _CRT_SECURE_NO_WARNINGS /D _MBCS /Gm- /EHsc /MD /GS /Gy /arch:SSE2 /fp:fast /permissive- /Zc:wchar_t /Zc:forScope /Zc:inline /Fo"C:\USERS\CHEERSLUV\SOURCE\REPOS\CARIENGINE\BIN\RELEASE\INTERMEDIATES\\" /Fd"C:\USERS\CHEERSLUV\SOURCE\REPOS\CARIENGINE\BIN\RELEASE\INTERMEDIATES\VC142.PDB" /Gd /TP /analyze- /FC C:\USERS\CHEERSLUV\SOURCE\REPOS\CARIENGINE\CARIENGINECORE\SRC\GRAPHICS\RENDERERS\BATCHRENDERER2D.CPP
^C:\USERS\CHEERSLUV\SOURCE\REPOS\CARIENGINE\CARIENGINECORE\SRC\GRAPHICS\RENDERERS\GUIRENDERER.CPP
/c /IC:\USERS\CHEERSLUV\SOURCE\REPOS\CARIENGINE\/INCLUDE /Zi /nologo /W3 /WX- /diagnostics:column /sdl /O2 /Ob2 /Oi /Ot /Oy- /GL /D GLEW_STATIC /D _CRT_SECURE_NO_WARNINGS /D _MBCS /Gm- /EHsc /MD /GS /Gy /arch:SSE2 /fp:fast /permissive- /Zc:wchar_t /Zc:forScope /Zc:inline /Fo"C:\USERS\CHEERSLUV\SOURCE\REPOS\CARIENGINE\BIN\RELEASE\INTERMEDIATES\\" /Fd"C:\USERS\CHEERSLUV\SOURCE\REPOS\CARIENGINE\BIN\RELEASE\INTERMEDIATES\VC142.PDB" /Gd /TP /analyze- /FC C:\USERS\CHEERSLUV\SOURCE\REPOS\CARIENGINE\CARIENGINECORE\SRC\GRAPHICS\RENDERERS\GUIRENDERER.CPP
^C:\USERS\CHEERSLUV\SOURCE\REPOS\CARIENGINE\CARIENGINECORE\SRC\GRAPHICS\RENDERERS\SKYBOXRENDERER.CPP
/c /IC:\USERS\CHEERSLUV\SOURCE\REPOS\CARIENGINE\/INCLUDE /Zi /nologo /W3 /WX- /diagnostics:column /sdl /O2 /Ob2 /Oi /Ot /Oy- /GL /D GLEW_STATIC /D _CRT_SECURE_NO_WARNINGS /D _MBCS /Gm- /EHsc /MD /GS /Gy /arch:SSE2 /fp:fast /permissive- /Zc:wchar_t /Zc:forScope /Zc:inline /Fo"C:\USERS\CHEERSLUV\SOURCE\REPOS\CARIENGINE\BIN\RELEASE\INTERMEDIATES\\" /Fd"C:\USERS\CHEERSLUV\SOURCE\REPOS\CARIENGINE\BIN\RELEASE\INTERMEDIATES\VC142.PDB" /Gd /TP /analyze- /FC C:\USERS\CHEERSLUV\SOURCE\REPOS\CARIENGINE\CARIENGINECORE\SRC\GRAPHICS\RENDERERS\SKYBOXRENDERER.CPP
^C:\USERS\CHEERSLUV\SOURCE\REPOS\CARIENGINE\CARIENGINECORE\SRC\GRAPHICS\SHADERS\SHADER.CPP
/c /IC:\USERS\CHEERSLUV\SOURCE\REPOS\CARIENGINE\/INCLUDE /Zi /nologo /W3 /WX- /diagnostics:column /sdl /O2 /Ob2 /Oi /Ot /Oy- /GL /D GLEW_STATIC /D _CRT_SECURE_NO_WARNINGS /D _MBCS /Gm- /EHsc /MD /GS /Gy /arch:SSE2 /fp:fast /permissive- /Zc:wchar_t /Zc:forScope /Zc:inline /Fo"C:\USERS\CHEERSLUV\SOURCE\REPOS\CARIENGINE\BIN\RELEASE\INTERMEDIATES\\" /Fd"C:\USERS\CHEERSLUV\SOURCE\REPOS\CARIENGINE\BIN\RELEASE\INTERMEDIATES\VC142.PDB" /Gd /TP /analyze- /FC C:\USERS\CHEERSLUV\SOURCE\REPOS\CARIENGINE\CARIENGINECORE\SRC\GRAPHICS\SHADERS\SHADER.CPP
^C:\USERS\CHEERSLUV\SOURCE\REPOS\CARIENGINE\CARIENGINECORE\SRC\GRAPHICS\TEXTURES\TEXTURE.CPP
/c /IC:\USERS\CHEERSLUV\SOURCE\REPOS\CARIENGINE\/INCLUDE /Zi /nologo /W3 /WX- /diagnostics:column /sdl /O2 /Ob2 /Oi /Ot /Oy- /GL /D GLEW_STATIC /D _CRT_SECURE_NO_WARNINGS /D _MBCS /Gm- /EHsc /MD /GS /Gy /arch:SSE2 /fp:fast /permissive- /Zc:wchar_t /Zc:forScope /Zc:inline /Fo"C:\USERS\CHEERSLUV\SOURCE\REPOS\CARIENGINE\BIN\RELEASE\INTERMEDIATES\\" /Fd"C:\USERS\CHEERSLUV\SOURCE\REPOS\CARIENGINE\BIN\RELEASE\INTERMEDIATES\VC142.PDB" /Gd /TP /analyze- /FC C:\USERS\CHEERSLUV\SOURCE\REPOS\CARIENGINE\CARIENGINECORE\SRC\GRAPHICS\TEXTURES\TEXTURE.CPP
^C:\USERS\CHEERSLUV\SOURCE\REPOS\CARIENGINE\CARIENGINECORE\SRC\GRAPHICS\TEXTURES\TEXTUREMANAGER.CPP
/c /IC:\USERS\CHEERSLUV\SOURCE\REPOS\CARIENGINE\/INCLUDE /Zi /nologo /W3 /WX- /diagnostics:column /sdl /O2 /Ob2 /Oi /Ot /Oy- /GL /D GLEW_STATIC /D _CRT_SECURE_NO_WARNINGS /D _MBCS /Gm- /EHsc /MD /GS /Gy /arch:SSE2 /fp:fast /permissive- /Zc:wchar_t /Zc:forScope /Zc:inline /Fo"C:\USERS\CHEERSLUV\SOURCE\REPOS\CARIENGINE\BIN\RELEASE\INTERMEDIATES\\" /Fd"C:\USERS\CHEERSLUV\SOURCE\REPOS\CARIENGINE\BIN\RELEASE\INTERMEDIATES\VC142.PDB" /Gd /TP /analyze- /FC C:\USERS\CHEERSLUV\SOURCE\REPOS\CARIENGINE\CARIENGINECORE\SRC\GRAPHICS\TEXTURES\TEXTUREMANAGER.CPP
^C:\USERS\CHEERSLUV\SOURCE\REPOS\CARIENGINE\CARIENGINECORE\SRC\INPUT\INPUTHANDLER.CPP
/c /IC:\USERS\CHEERSLUV\SOURCE\REPOS\CARIENGINE\/INCLUDE /Zi /nologo /W3 /WX- /diagnostics:column /sdl /O2 /Ob2 /Oi /Ot /Oy- /GL /D GLEW_STATIC /D _CRT_SECURE_NO_WARNINGS /D _MBCS /Gm- /EHsc /MD /GS /Gy /arch:SSE2 /fp:fast /permissive- /Zc:wchar_t /Zc:forScope /Zc:inline /Fo"C:\USERS\CHEERSLUV\SOURCE\REPOS\CARIENGINE\BIN\RELEASE\INTERMEDIATES\\" /Fd"C:\USERS\CHEERSLUV\SOURCE\REPOS\CARIENGINE\BIN\RELEASE\INTERMEDIATES\VC142.PDB" /Gd /TP /analyze- /FC C:\USERS\CHEERSLUV\SOURCE\REPOS\CARIENGINE\CARIENGINECORE\SRC\INPUT\INPUTHANDLER.CPP
^C:\USERS\CHEERSLUV\SOURCE\REPOS\CARIENGINE\CARIENGINECORE\SRC\MATHS\MAT4.CPP
/c /IC:\USERS\CHEERSLUV\SOURCE\REPOS\CARIENGINE\/INCLUDE /Zi /nologo /W3 /WX- /diagnostics:column /sdl /O2 /Ob2 /Oi /Ot /Oy- /GL /D GLEW_STATIC /D _CRT_SECURE_NO_WARNINGS /D _MBCS /Gm- /EHsc /MD /GS /Gy /arch:SSE2 /fp:fast /permissive- /Zc:wchar_t /Zc:forScope /Zc:inline /Fo"C:\USERS\CHEERSLUV\SOURCE\REPOS\CARIENGINE\BIN\RELEASE\INTERMEDIATES\\" /Fd"C:\USERS\CHEERSLUV\SOURCE\REPOS\CARIENGINE\BIN\RELEASE\INTERMEDIATES\VC142.PDB" /Gd /TP /analyze- /FC C:\USERS\CHEERSLUV\SOURCE\REPOS\CARIENGINE\CARIENGINECORE\SRC\MATHS\MAT4.CPP
^C:\USERS\CHEERSLUV\SOURCE\REPOS\CARIENGINE\CARIENGINECORE\SRC\MATHS\VEC2.CPP
/c /IC:\USERS\CHEERSLUV\SOURCE\REPOS\CARIENGINE\/INCLUDE /Zi /nologo /W3 /WX- /diagnostics:column /sdl /O2 /Ob2 /Oi /Ot /Oy- /GL /D GLEW_STATIC /D _CRT_SECURE_NO_WARNINGS /D _MBCS /Gm- /EHsc /MD /GS /Gy /arch:SSE2 /fp:fast /permissive- /Zc:wchar_t /Zc:forScope /Zc:inline /Fo"C:\USERS\CHEERSLUV\SOURCE\REPOS\CARIENGINE\BIN\RELEASE\INTERMEDIATES\\" /Fd"C:\USERS\CHEERSLUV\SOURCE\REPOS\CARIENGINE\BIN\RELEASE\INTERMEDIATES\VC142.PDB" /Gd /TP /analyze- /FC C:\USERS\CHEERSLUV\SOURCE\REPOS\CARIENGINE\CARIENGINECORE\SRC\MATHS\VEC2.CPP
^C:\USERS\CHEERSLUV\SOURCE\REPOS\CARIENGINE\CARIENGINECORE\SRC\MATHS\VEC3.CPP
/c /IC:\USERS\CHEERSLUV\SOURCE\REPOS\CARIENGINE\/INCLUDE /Zi /nologo /W3 /WX- /diagnostics:column /sdl /O2 /Ob2 /Oi /Ot /Oy- /GL /D GLEW_STATIC /D _CRT_SECURE_NO_WARNINGS /D _MBCS /Gm- /EHsc /MD /GS /Gy /arch:SSE2 /fp:fast /permissive- /Zc:wchar_t /Zc:forScope /Zc:inline /Fo"C:\USERS\CHEERSLUV\SOURCE\REPOS\CARIENGINE\BIN\RELEASE\INTERMEDIATES\\" /Fd"C:\USERS\CHEERSLUV\SOURCE\REPOS\CARIENGINE\BIN\RELEASE\INTERMEDIATES\VC142.PDB" /Gd /TP /analyze- /FC C:\USERS\CHEERSLUV\SOURCE\REPOS\CARIENGINE\CARIENGINECORE\SRC\MATHS\VEC3.CPP
^C:\USERS\CHEERSLUV\SOURCE\REPOS\CARIENGINE\CARIENGINECORE\SRC\MATHS\VEC4.CPP
/c /IC:\USERS\CHEERSLUV\SOURCE\REPOS\CARIENGINE\/INCLUDE /Zi /nologo /W3 /WX- /diagnostics:column /sdl /O2 /Ob2 /Oi /Ot /Oy- /GL /D GLEW_STATIC /D _CRT_SECURE_NO_WARNINGS /D _MBCS /Gm- /EHsc /MD /GS /Gy /arch:SSE2 /fp:fast /permissive- /Zc:wchar_t /Zc:forScope /Zc:inline /Fo"C:\USERS\CHEERSLUV\SOURCE\REPOS\CARIENGINE\BIN\RELEASE\INTERMEDIATES\\" /Fd"C:\USERS\CHEERSLUV\SOURCE\REPOS\CARIENGINE\BIN\RELEASE\INTERMEDIATES\VC142.PDB" /Gd /TP /analyze- /FC C:\USERS\CHEERSLUV\SOURCE\REPOS\CARIENGINE\CARIENGINECORE\SRC\MATHS\VEC4.CPP
^C:\USERS\CHEERSLUV\SOURCE\REPOS\CARIENGINE\CARIENGINECORE\SRC\NOISE\PERLINNOISE2D.CPP
/c /IC:\USERS\CHEERSLUV\SOURCE\REPOS\CARIENGINE\/INCLUDE /Zi /nologo /W3 /WX- /diagnostics:column /sdl /O2 /Ob2 /Oi /Ot /Oy- /GL /D GLEW_STATIC /D _CRT_SECURE_NO_WARNINGS /D _MBCS /Gm- /EHsc /MD /GS /Gy /arch:SSE2 /fp:fast /permissive- /Zc:wchar_t /Zc:forScope /Zc:inline /Fo"C:\USERS\CHEERSLUV\SOURCE\REPOS\CARIENGINE\BIN\RELEASE\INTERMEDIATES\\" /Fd"C:\USERS\CHEERSLUV\SOURCE\REPOS\CARIENGINE\BIN\RELEASE\INTERMEDIATES\VC142.PDB" /Gd /TP /analyze- /FC C:\USERS\CHEERSLUV\SOURCE\REPOS\CARIENGINE\CARIENGINECORE\SRC\NOISE\PERLINNOISE2D.CPP
^C:\USERS\CHEERSLUV\SOURCE\REPOS\CARIENGINE\CARIENGINECORE\SRC\NOISE\PERLINNOISE3D.CPP
/c /IC:\USERS\CHEERSLUV\SOURCE\REPOS\CARIENGINE\/INCLUDE /Zi /nologo /W3 /WX- /diagnostics:column /sdl /O2 /Ob2 /Oi /Ot /Oy- /GL /D GLEW_STATIC /D _CRT_SECURE_NO_WARNINGS /D _MBCS /Gm- /EHsc /MD /GS /Gy /arch:SSE2 /fp:fast /permissive- /Zc:wchar_t /Zc:forScope /Zc:inline /Fo"C:\USERS\CHEERSLUV\SOURCE\REPOS\CARIENGINE\BIN\RELEASE\INTERMEDIATES\\" /Fd"C:\USERS\CHEERSLUV\SOURCE\REPOS\CARIENGINE\BIN\RELEASE\INTERMEDIATES\VC142.PDB" /Gd /TP /analyze- /FC C:\USERS\CHEERSLUV\SOURCE\REPOS\CARIENGINE\CARIENGINECORE\SRC\NOISE\PERLINNOISE3D.CPP
^C:\USERS\CHEERSLUV\SOURCE\REPOS\CARIENGINE\CARIENGINECORE\SRC\TEST\TESTGAME.CPP
/c /IC:\USERS\CHEERSLUV\SOURCE\REPOS\CARIENGINE\/INCLUDE /Zi /nologo /W3 /WX- /diagnostics:column /sdl /O2 /Ob2 /Oi /Ot /Oy- /GL /D GLEW_STATIC /D _CRT_SECURE_NO_WARNINGS /D _MBCS /Gm- /EHsc /MD /GS /Gy /arch:SSE2 /fp:fast /permissive- /Zc:wchar_t /Zc:forScope /Zc:inline /Fo"C:\USERS\CHEERSLUV\SOURCE\REPOS\CARIENGINE\BIN\RELEASE\INTERMEDIATES\\" /Fd"C:\USERS\CHEERSLUV\SOURCE\REPOS\CARIENGINE\BIN\RELEASE\INTERMEDIATES\VC142.PDB" /Gd /TP /analyze- /FC C:\USERS\CHEERSLUV\SOURCE\REPOS\CARIENGINE\CARIENGINECORE\SRC\TEST\TESTGAME.CPP
^C:\USERS\CHEERSLUV\SOURCE\REPOS\CARIENGINE\CARIENGINECORE\SRC\UTILS\IMAGE.CPP
/c /IC:\USERS\CHEERSLUV\SOURCE\REPOS\CARIENGINE\/INCLUDE /Zi /nologo /W3 /WX- /diagnostics:column /sdl /O2 /Ob2 /Oi /Ot /Oy- /GL /D GLEW_STATIC /D _CRT_SECURE_NO_WARNINGS /D _MBCS /Gm- /EHsc /MD /GS /Gy /arch:SSE2 /fp:fast /permissive- /Zc:wchar_t /Zc:forScope /Zc:inline /Fo"C:\USERS\CHEERSLUV\SOURCE\REPOS\CARIENGINE\BIN\RELEASE\INTERMEDIATES\\" /Fd"C:\USERS\CHEERSLUV\SOURCE\REPOS\CARIENGINE\BIN\RELEASE\INTERMEDIATES\VC142.PDB" /Gd /TP /analyze- /FC C:\USERS\CHEERSLUV\SOURCE\REPOS\CARIENGINE\CARIENGINECORE\SRC\UTILS\IMAGE.CPP
^C:\USERS\CHEERSLUV\SOURCE\REPOS\CARIENGINE\CARIENGINECORE\SRC\GRAPHICS\RENDERERS\RENDERER.CPP
/c /IC:\USERS\CHEERSLUV\SOURCE\REPOS\CARIENGINE\/INCLUDE /Zi /nologo /W3 /WX- /diagnostics:column /sdl /O2 /Ob2 /Oi /Ot /Oy- /GL /D GLEW_STATIC /D _CRT_SECURE_NO_WARNINGS /D _MBCS /Gm- /EHsc /MD /GS /Gy /arch:SSE2 /fp:fast /permissive- /Zc:wchar_t /Zc:forScope /Zc:inline /Fo"C:\USERS\CHEERSLUV\SOURCE\REPOS\CARIENGINE\BIN\RELEASE\INTERMEDIATES\\" /Fd"C:\USERS\CHEERSLUV\SOURCE\REPOS\CARIENGINE\BIN\RELEASE\INTERMEDIATES\VC142.PDB" /Gd /TP /analyze- /FC C:\USERS\CHEERSLUV\SOURCE\REPOS\CARIENGINE\CARIENGINECORE\SRC\GRAPHICS\RENDERERS\RENDERER.CPP
