^C:\USERS\CHEERSLUV\SOURCE\REPOS\CARIENGINE\BIN\RELEASE\INTERMEDIATES\APPLICATION.OBJ|C:\USERS\CHEERSLUV\SOURCE\REPOS\CARIENGINE\BIN\RELEASE\INTERMEDIATES\BATCHRENDERER2D.OBJ|C:\USERS\CHEERSLUV\SOURCE\REPOS\CARIENGINE\BIN\RELEASE\INTERMEDIATES\BUFFER.OBJ|C:\USERS\CHEERSLUV\SOURCE\REPOS\CARIENGINE\BIN\RELEASE\INTERMEDIATES\FONT.OBJ|C:\USERS\CHEERSLUV\SOURCE\REPOS\CARIENGINE\BIN\RELEASE\INTERMEDIATES\FONTMANAGER.OBJ|C:\USERS\CHEERSLUV\SOURCE\REPOS\CARIENGINE\BIN\RELEASE\INTERMEDIATES\GUIRENDERER.OBJ|C:\USERS\CHEERSLUV\SOURCE\REPOS\CARIENGINE\BIN\RELEASE\INTERMEDIATES\IMAGE.OBJ|C:\USERS\CHEERSLUV\SOURCE\REPOS\CARIENGINE\BIN\RELEASE\INTERMEDIATES\INDEXBUFFER.OBJ|C:\USERS\CHEERSLUV\SOURCE\REPOS\CARIENGINE\BIN\RELEASE\INTERMEDIATES\INPUTHANDLER.OBJ|C:\USERS\CHEERSLUV\SOURCE\REPOS\CARIENGINE\BIN\RELEASE\INTERMEDIATES\MAIN.OBJ|C:\USERS\CHEERSLUV\SOURCE\REPOS\CARIENGINE\BIN\RELEASE\INTERMEDIATES\MAT4.OBJ|C:\USERS\CHEERSLUV\SOURCE\REPOS\CARIENGINE\BIN\RELEASE\INTERMEDIATES\MESH.OBJ|C:\USERS\CHEERSLUV\SOURCE\REPOS\CARIENGINE\BIN\RELEASE\INTERMEDIATES\MESHOLD.OBJ|C:\USERS\CHEERSLUV\SOURCE\REPOS\CARIENGINE\BIN\RELEASE\INTERMEDIATES\MESHTOOLS.OBJ|C:\USERS\CHEERSLUV\SOURCE\REPOS\CARIENGINE\BIN\RELEASE\INTERMEDIATES\MODEL.OBJ|C:\USERS\CHEERSLUV\SOURCE\REPOS\CARIENGINE\BIN\RELEASE\INTERMEDIATES\MODELMANAGER.OBJ|C:\USERS\CHEERSLUV\SOURCE\REPOS\CARIENGINE\BIN\RELEASE\INTERMEDIATES\PERLINNOISE2D.OBJ|C:\USERS\CHEERSLUV\SOURCE\REPOS\CARIENGINE\BIN\RELEASE\INTERMEDIATES\PERLINNOISE3D.OBJ|C:\USERS\CHEERSLUV\SOURCE\REPOS\CARIENGINE\BIN\RELEASE\INTERMEDIATES\RENDERER.OBJ|C:\USERS\CHEERSLUV\SOURCE\REPOS\CARIENGINE\BIN\RELEASE\INTERMEDIATES\SHADER.OBJ|C:\USERS\CHEERSLUV\SOURCE\REPOS\CARIENGINE\BIN\RELEASE\INTERMEDIATES\SKYBOXRENDERER.OBJ|C:\USERS\CHEERSLUV\SOURCE\REPOS\CARIENGINE\BIN\RELEASE\INTERMEDIATES\TESTGAME.OBJ|C:\USERS\CHEERSLUV\SOURCE\REPOS\CARIENGINE\BIN\RELEASE\INTERMEDIATES\TEXTURE.OBJ|C:\USERS\CHEERSLUV\SOURCE\REPOS\CARIENGINE\BIN\RELEASE\INTERMEDIATES\TEXTUREMANAGER.OBJ|C:\USERS\CHEERSLUV\SOURCE\REPOS\CARIENGINE\BIN\RELEASE\INTERMEDIATES\VEC2.OBJ|C:\USERS\CHEERSLUV\SOURCE\REPOS\CARIENGINE\BIN\RELEASE\INTERMEDIATES\VEC3.OBJ|C:\USERS\CHEERSLUV\SOURCE\REPOS\CARIENGINE\BIN\RELEASE\INTERMEDIATES\VEC4.OBJ|C:\USERS\CHEERSLUV\SOURCE\REPOS\CARIENGINE\BIN\RELEASE\INTERMEDIATES\VERTEXARRAY.OBJ|C:\USERS\CHEERSLUV\SOURCE\REPOS\CARIENGINE\BIN\RELEASE\INTERMEDIATES\WINDOW.OBJ
C:\USERS\CHEERSLUV\SOURCE\REPOS\CARIENGINE\BIN\RELEASE\CARIENGINECORE.EXE
C:\USERS\CHEERSLUV\SOURCE\REPOS\CARIENGINE\BIN\RELEASE\CARIENGINECORE.PDB
