^C:\USERS\CHEERSLUV\SOURCE\REPOS\CARIENGINE\BIN\DEBUG\INTERMEDIATES\APPLICATION.OBJ|C:\USERS\CHEERSLUV\SOURCE\REPOS\CARIENGINE\BIN\DEBUG\INTERMEDIATES\BATCHRENDERER2D.OBJ|C:\USERS\CHEERSLUV\SOURCE\REPOS\CARIENGINE\BIN\DEBUG\INTERMEDIATES\BUFFER.OBJ|C:\USERS\CHEERSLUV\SOURCE\REPOS\CARIENGINE\BIN\DEBUG\INTERMEDIATES\FONT.OBJ|C:\USERS\CHEERSLUV\SOURCE\REPOS\CARIENGINE\BIN\DEBUG\INTERMEDIATES\FONTMANAGER.OBJ|C:\USERS\CHEERSLUV\SOURCE\REPOS\CARIENGINE\BIN\DEBUG\INTERMEDIATES\GUIRENDERER.OBJ|C:\USERS\CHEERSLUV\SOURCE\REPOS\CARIENGINE\BIN\DEBUG\INTERMEDIATES\IMAGE.OBJ|C:\USERS\CHEERSLUV\SOURCE\REPOS\CARIENGINE\BIN\DEBUG\INTERMEDIATES\INDEXBUFFER.OBJ|C:\USERS\CHEERSLUV\SOURCE\REPOS\CARIENGINE\BIN\DEBUG\INTERMEDIATES\INPUTHANDLER.OBJ|C:\USERS\CHEERSLUV\SOURCE\REPOS\CARIENGINE\BIN\DEBUG\INTERMEDIATES\MAIN.OBJ|C:\USERS\CHEERSLUV\SOURCE\REPOS\CARIENGINE\BIN\DEBUG\INTERMEDIATES\MAT4.OBJ|C:\USERS\CHEERSLUV\SOURCE\REPOS\CARIENGINE\BIN\DEBUG\INTERMEDIATES\MESH.OBJ|C:\USERS\CHEERSLUV\SOURCE\REPOS\CARIENGINE\BIN\DEBUG\INTERMEDIATES\MESHOLD.OBJ|C:\USERS\CHEERSLUV\SOURCE\REPOS\CARIENGINE\BIN\DEBUG\INTERMEDIATES\MESHTOOLS.OBJ|C:\USERS\CHEERSLUV\SOURCE\REPOS\CARIENGINE\BIN\DEBUG\INTERMEDIATES\MODEL.OBJ|C:\USERS\CHEERSLUV\SOURCE\REPOS\CARIENGINE\BIN\DEBUG\INTERMEDIATES\MODELMANAGER.OBJ|C:\USERS\CHEERSLUV\SOURCE\REPOS\CARIENGINE\BIN\DEBUG\INTERMEDIATES\PERLINNOISE2D.OBJ|C:\USERS\CHEERSLUV\SOURCE\REPOS\CARIENGINE\BIN\DEBUG\INTERMEDIATES\PERLINNOISE3D.OBJ|C:\USERS\CHEERSLUV\SOURCE\REPOS\CARIENGINE\BIN\DEBUG\INTERMEDIATES\QUATERNION.OBJ|C:\USERS\CHEERSLUV\SOURCE\REPOS\CARIENGINE\BIN\DEBUG\INTERMEDIATES\RENDERER.OBJ|C:\USERS\CHEERSLUV\SOURCE\REPOS\CARIENGINE\BIN\DEBUG\INTERMEDIATES\SHADER.OBJ|C:\USERS\CHEERSLUV\SOURCE\REPOS\CARIENGINE\BIN\DEBUG\INTERMEDIATES\SKYBOXRENDERER.OBJ|C:\USERS\CHEERSLUV\SOURCE\REPOS\CARIENGINE\BIN\DEBUG\INTERMEDIATES\TESTGAME.OBJ|C:\USERS\CHEERSLUV\SOURCE\REPOS\CARIENGINE\BIN\DEBUG\INTERMEDIATES\TEXTURE.OBJ|C:\USERS\CHEERSLUV\SOURCE\REPOS\CARIENGINE\BIN\DEBUG\INTERMEDIATES\TEXTUREMANAGER.OBJ|C:\USERS\CHEERSLUV\SOURCE\REPOS\CARIENGINE\BIN\DEBUG\INTERMEDIATES\VEC2.OBJ|C:\USERS\CHEERSLUV\SOURCE\REPOS\CARIENGINE\BIN\DEBUG\INTERMEDIATES\VEC3.OBJ|C:\USERS\CHEERSLUV\SOURCE\REPOS\CARIENGINE\BIN\DEBUG\INTERMEDIATES\VEC4.OBJ|C:\USERS\CHEERSLUV\SOURCE\REPOS\CARIENGINE\BIN\DEBUG\INTERMEDIATES\VERTEXARRAY.OBJ|C:\USERS\CHEERSLUV\SOURCE\REPOS\CARIENGINE\BIN\DEBUG\INTERMEDIATES\WINDOW.OBJ
C:\USERS\CHEERSLUV\SOURCE\REPOS\CARIENGINE\BIN\DEBUG\CARIENGINECORE.EXE
C:\USERS\CHEERSLUV\SOURCE\REPOS\CARIENGINE\BIN\DEBUG\CARIENGINECORE.ILK
C:\USERS\CHEERSLUV\SOURCE\REPOS\CARIENGINE\BIN\DEBUG\CARIENGINECORE.PDB
